<?xml version="1.0" encoding="utf-8"?>
<!-- Generator: Adobe Illustrator 17.1.0, SVG Export Plug-In . SVG Version: 6.00 Build 0)  -->
<!DOCTYPE svg [
	<!ENTITY ns_flows "http://ns.adobe.com/Flows/1.0/">
	<!ENTITY ns_extend "http://ns.adobe.com/Extensibility/1.0/">
	<!ENTITY ns_ai "http://ns.adobe.com/AdobeIllustrator/10.0/">
	<!ENTITY ns_graphs "http://ns.adobe.com/Graphs/1.0/">
]>
<svg version="1.2" baseProfile="tiny" id="iconmonstr" xmlns:x="&ns_extend;" xmlns:i="&ns_ai;" xmlns:graph="&ns_graphs;"
	 xmlns="http://www.w3.org/2000/svg" xmlns:xlink="http://www.w3.org/1999/xlink" xmlns:a="http://ns.adobe.com/AdobeSVGViewerExtensions/3.0/"
	 x="0px" y="0px" width="24px" height="24px" viewBox="0 0 24 24" xml:space="preserve">
<path id="user-30" fill="#FFFFFF" d="M25.5,33H22c0-5.4,0.2-6.2-3.1-7c-5-1.2-9.8-2.3-11.5-6c-0.6-1.4-1.1-3.7,0.5-6.7
	c3.6-6.8,4.5-12.5,2.5-15.9C8-6.5,0.9-6.5-1.5-2.5c-2,3.4-1.1,9.1,2.5,15.8c1.6,3,1.2,5.3,0.6,6.7c-1.7,3.8-6.4,4.9-11.4,6
	c-3.4,0.8-3.2,1.5-3.2,7h-3.5c0-0.8,0-1.5,0-2.2c0-4.4,0.3-6.9,5.6-8.2c5.9-1.4,11.7-2.6,8.9-7.7C-10.3-0.3-4.4-9,4.5-9
	c8.7,0,14.8,8.3,6.5,23.9c-2.7,5.1,2.9,6.3,8.9,7.7c5.2,1.2,5.6,3.8,5.6,8.2C25.5,31.5,25.5,32.2,25.5,33z M42.3,25.3
	c-4.5-1-8.7-2-6.7-5.8c6.2-11.7,1.6-18-4.9-18c-4.4,0-7.9,2.9-7.9,8.1c0,4.4,2,7.6,3.2,10.2h3.7c-0.6-2.6-5.1-9-2.7-13.1
	c1.4-2.4,6-2.4,7.4,0c1.3,2.2,0.6,6.3-1.9,11.1c-1.4,2.6-1,4.6-0.4,5.8c1.1,2.3,3.4,3.5,6.1,4.2C43.5,29.4,43,28,43,33h3.5
	c0-0.6,0-1.1,0-1.6C46.5,28.1,46.2,26.2,42.3,25.3z"/>
</svg>
