<?xml version="1.0" encoding="utf-8"?>
<!-- Generator: Adobe Illustrator 17.1.0, SVG Export Plug-In . SVG Version: 6.00 Build 0)  -->
<!DOCTYPE svg [
	<!ENTITY ns_flows "http://ns.adobe.com/Flows/1.0/">
	<!ENTITY ns_extend "http://ns.adobe.com/Extensibility/1.0/">
	<!ENTITY ns_ai "http://ns.adobe.com/AdobeIllustrator/10.0/">
	<!ENTITY ns_graphs "http://ns.adobe.com/Graphs/1.0/">
]>
<svg version="1.2" baseProfile="tiny" id="iconmonstr" xmlns:x="&ns_extend;" xmlns:i="&ns_ai;" xmlns:graph="&ns_graphs;"
	 xmlns="http://www.w3.org/2000/svg" xmlns:xlink="http://www.w3.org/1999/xlink" xmlns:a="http://ns.adobe.com/AdobeSVGViewerExtensions/3.0/"
	 x="0px" y="0px" width="24px" height="24px" viewBox="0 0 24 24" xml:space="preserve">
<path id="fullscreen-2" d="M19.8,17.5l2.1-2.1v6.6h-6.6l2.1-2.1l-4.3-4.3l2.3-2.3L19.8,17.5z M8.5,10.8l2.3-2.3L6.5,4.2l2.1-2.1H2.1
	v6.6l2.1-2.1L8.5,10.8z M17.5,4.2l-2.1-2.1h6.6v6.6l-2.1-2.1l-4.3,4.3l-2.3-2.3L17.5,4.2z M10.8,15.5l-2.3-2.3l-4.3,4.3l-2.1-2.1
	v6.6h6.6l-2.1-2.1L10.8,15.5z"/>
</svg>
