<?xml version="1.0" encoding="utf-8"?>
<!-- Generator: Adobe Illustrator 17.1.0, SVG Export Plug-In . SVG Version: 6.00 Build 0)  -->
<!DOCTYPE svg [
	<!ENTITY ns_flows "http://ns.adobe.com/Flows/1.0/">
	<!ENTITY ns_extend "http://ns.adobe.com/Extensibility/1.0/">
	<!ENTITY ns_ai "http://ns.adobe.com/AdobeIllustrator/10.0/">
	<!ENTITY ns_graphs "http://ns.adobe.com/Graphs/1.0/">
]>
<svg version="1.2" baseProfile="tiny" id="Ebene_4" xmlns:x="&ns_extend;" xmlns:i="&ns_ai;" xmlns:graph="&ns_graphs;"
	 xmlns="http://www.w3.org/2000/svg" xmlns:xlink="http://www.w3.org/1999/xlink" xmlns:a="http://ns.adobe.com/AdobeSVGViewerExtensions/3.0/"
	 x="0px" y="0px" width="595.3px" height="841.9px" viewBox="0 0 595.3 841.9" xml:space="preserve">
<g>
	<path fill="#333333" d="M320.6,349.9c-0.5-0.5-4-1.5-5.5-1.5c0,0,0,0,0,0.1c0.2,0.5,0.2,1,0.2,1.5c0,1.2-0.4,2.2-0.9,3.1
		c-0.7,1.3-1.5,2.7-3.3,3.3c-0.5,0.2-0.9,0.2-1.4,0.2c-0.3,0-0.5,0-0.8-0.1c-4.3,6.9-7.6,12.7-11.5,20.8c-1,2.1-1.8,4-2.6,5.9
		c-0.3-0.5-0.9-1.8-1.1-2.2c-2.2-4.8-1.5-3.8-3.4-8.6c-0.2-0.5-4.1-2.4-5.3-1.3c-0.3,0.3-0.4,0.9-0.1,1.4c3.7,6.4,5.5,10.8,9.6,17
		c0.4,0.7,2,1.2,3.1-0.2l1.1-2.2c6.8-12,13.4-22.9,21.4-35C320.4,352.1,321.4,350.7,320.6,349.9z M305.2,385.3
		c-0.3-0.2-0.7-0.2-1-0.2c-1,0-2,0.6-2.5,1.6c-0.2,0.4-0.3,0.8-0.3,1.3c0,1,0.5,1.9,1.4,2.4c0.3,0.2,0.7,0.2,1,0.2
		c1,0,2-0.6,2.5-1.6c0.2-0.4,0.3-0.9,0.3-1.3C306.7,386.7,306.2,385.8,305.2,385.3z"/>
</g>
<g>
	<path fill="#333333" d="M276.9,356l0.4,0.4l0.7,4.1l1.7-1.9l0.4,0.3l-2.2,2.4l-0.4-0.4l-0.7-4.1l-1.7,1.9l-0.4-0.3L276.9,356z"/>
	<path fill="#333333" d="M273.7,359.7l3.7,2.4l-1.6,2.5l-0.4-0.3l1.3-2l-1.1-0.7l-1.2,1.8L274,363l1.2-1.8l-1.3-0.8l-1.3,2l-0.4-0.3
		L273.7,359.7z"/>
	<path fill="#333333" d="M270.3,366l2,0l0.5-1.1l-1.7-0.7l0.2-0.5l4,1.8l-0.7,1.6c-0.2,0.5-0.5,0.7-0.8,0.9c-0.3,0.1-0.6,0.1-1,0
		c-0.4-0.2-0.5-0.4-0.7-0.7c-0.1-0.2-0.1-0.4-0.1-0.6l-2.1,0L270.3,366z M274.2,366.8l0.5-1.1l-1.4-0.6l-0.5,1.1
		c-0.2,0.5-0.2,0.9,0.3,1.1C273.6,367.5,274,367.2,274.2,366.8z"/>
	<path fill="#333333" d="M272.9,370.5l-3.8-1l0.1-0.5l3.8,1l0.3-1.3l0.5,0.1l-0.8,3.1l-0.5-0.1L272.9,370.5z"/>
	<path fill="#333333" d="M268.6,372.3l4.4,0.6l-0.1,0.6l-4.4-0.6L268.6,372.3z"/>
	<path fill="#333333" d="M272.2,375.4l-1.4,0l-0.1,2.1l-0.5,0l0.1-2.1l-1.9-0.1l0-0.6l4.4,0.1l-0.1,2.9l-0.5,0L272.2,375.4z"/>
	<path fill="#333333" d="M268.4,379.2l4.4-0.4l0.1,0.6l-4.4,0.4L268.4,379.2z"/>
	<path fill="#333333" d="M268.6,381.4l0.5-0.1l3.8,1.8l-0.5-2.5l0.5-0.1l0.7,3.1l-0.5,0.1l-3.8-1.8l0.6,2.5l-0.5,0.1L268.6,381.4z"
		/>
	<path fill="#333333" d="M269.8,386.1l4.2-1.5l0.2,0.5l-4.2,1.5L269.8,386.1z"/>
	<path fill="#333333" d="M270.7,388.4l4-2l1.3,2.6l-0.5,0.2l-1.1-2.1l-1.2,0.6l0.9,1.9l-0.5,0.2l-0.9-1.9l-1.4,0.7l1.1,2.1l-0.5,0.2
		L270.7,388.4z"/>
	<path fill="#333333" d="M274.4,394.5l1-1.7l-0.7-1l-1.5,1.1l-0.3-0.4l3.6-2.6l1,1.4c0.3,0.4,0.4,0.8,0.3,1.1
		c-0.1,0.3-0.2,0.6-0.5,0.8c-0.3,0.2-0.6,0.3-0.9,0.2c-0.2,0-0.4-0.1-0.6-0.2l-1.1,1.8L274.4,394.5z M277,391.6l-0.7-1l-1.3,0.9
		l0.7,1c0.3,0.4,0.7,0.6,1.1,0.3C277.4,392.4,277.3,392,277,391.6z"/>
	<path fill="#333333" d="M279.6,394.6l-2.8,2.7l-0.4-0.4l2.8-2.7l-0.9-0.9l0.4-0.4l2.2,2.3l-0.4,0.4L279.6,394.6z"/>
	<path fill="#333333" d="M284.5,402.3c-0.4,0.1-0.8,0.1-1.3-0.2c-0.4-0.2-0.7-0.6-0.8-1c-0.2-0.6,0.1-1.2,0.4-1.9
		c0.3-0.6,0.7-1.1,1.4-1.3c0.4-0.1,0.9,0,1.3,0.2c0.4,0.2,0.7,0.6,0.8,1c0.1,0.4,0.1,0.7-0.1,1.1l-0.5-0.3c0.1-0.2,0.1-0.4,0.1-0.7
		c-0.1-0.3-0.2-0.5-0.5-0.7c-0.3-0.1-0.6-0.2-0.9-0.1c-0.5,0.2-0.8,0.7-1,1.1c-0.2,0.4-0.5,0.9-0.4,1.4c0.1,0.3,0.3,0.5,0.5,0.7
		c0.3,0.2,0.6,0.2,0.9,0.1c0.2-0.1,0.4-0.2,0.5-0.4l0.5,0.3C285.1,402,284.8,402.2,284.5,402.3z"/>
	<path fill="#333333" d="M286.1,403.5l1.5-4.1l2.8,1l-0.2,0.5L288,400l-0.5,1.3l2,0.7l-0.2,0.5l-2-0.7l-0.5,1.4l2.3,0.8l-0.2,0.5
		L286.1,403.5z"/>
	<path fill="#333333" d="M293,405.4l-0.5-2l-1.2-0.2L291,405l-0.5-0.1l0.8-4.3l1.7,0.3c0.5,0.1,0.8,0.3,1,0.6
		c0.2,0.3,0.2,0.6,0.2,0.9c-0.1,0.4-0.2,0.6-0.5,0.8c-0.2,0.1-0.4,0.2-0.6,0.2l0.5,2.1L293,405.4z M292.9,401.4l-1.2-0.2l-0.3,1.5
		l1.2,0.2c0.5,0.1,0.9,0,1-0.6C293.7,401.8,293.4,401.5,292.9,401.4z"/>
	<path fill="#333333" d="M296.9,401.8l-0.1,3.9l-0.6,0l0.1-3.9l-1.3,0l0-0.5l3.2,0.1l0,0.5L296.9,401.8z"/>
	<path fill="#333333" d="M299.6,405.6l-0.4-4.4l0.6,0l0.4,4.4L299.6,405.6z"/>
	<path fill="#333333" d="M301.8,401.4l0.3,1.4l2-0.4l0.1,0.5l-2,0.4l0.4,1.9l-0.5,0.1l-0.9-4.3l2.8-0.6l0.1,0.5L301.8,401.4z"/>
	<path fill="#333333" d="M306.3,404.3l-1.4-4.2l0.5-0.2l1.4,4.2L306.3,404.3z"/>
	<path fill="#333333" d="M308.7,403.4l-1.9-4l2.6-1.3l0.2,0.5l-2.2,1l0.6,1.2l1.9-0.9l0.2,0.5l-1.9,0.9l0.7,1.4l2.1-1l0.2,0.5
		L308.7,403.4z M307.6,398.7l-0.3-0.2l0.6-1.1l0.4,0.3L307.6,398.7z"/>
	<path fill="#333333" d="M317.5,397c0,0.4-0.2,0.8-0.6,1.1c-0.3,0.3-0.8,0.5-1.2,0.5c-0.7,0-1.2-0.4-1.6-1c-0.5-0.5-0.9-1-0.8-1.7
		c0-0.4,0.2-0.9,0.6-1.2c0.4-0.3,0.8-0.5,1.2-0.5c0.4,0,0.7,0.2,1,0.5l-0.4,0.4c-0.2-0.2-0.4-0.3-0.6-0.3c-0.3,0-0.6,0.1-0.8,0.3
		c-0.2,0.2-0.4,0.5-0.4,0.8c0,0.5,0.4,1,0.7,1.3c0.3,0.3,0.7,0.8,1.2,0.8c0.3,0,0.6-0.1,0.8-0.3c0.2-0.2,0.4-0.5,0.4-0.8
		c0-0.2-0.1-0.4-0.2-0.6l0.4-0.4C317.4,396.2,317.5,396.6,317.5,397z"/>
	<path fill="#333333" d="M319.2,395.7l-3.5-2.7l1.8-2.3l0.4,0.3l-1.5,1.9l1.1,0.8l1.3-1.6l0.4,0.3l-1.3,1.6l1.2,0.9l1.5-1.9l0.4,0.3
		L319.2,395.7z"/>
	<path fill="#333333" d="M323.2,389.8l-2-0.2l-0.6,1.1l1.6,0.9l-0.3,0.5l-3.9-2.1l0.8-1.5c0.3-0.5,0.6-0.7,0.9-0.8
		c0.3-0.1,0.6-0.1,1,0.1c0.3,0.2,0.5,0.4,0.6,0.7c0.1,0.2,0.1,0.4,0,0.6l2.1,0.2L323.2,389.8z M319.4,388.6l-0.6,1l1.4,0.8l0.6-1
		c0.3-0.5,0.3-0.9-0.2-1.2C320,388,319.6,388.2,319.4,388.6z"/>
	<path fill="#333333" d="M321,385l3.7,1.3l-0.2,0.5l-3.7-1.3l-0.4,1.2l-0.5-0.2l1.1-3l0.5,0.2L321,385z"/>
	<path fill="#333333" d="M325.4,383.6l-4.3-1l0.1-0.6l4.3,1L325.4,383.6z"/>
	<path fill="#333333" d="M322.1,380.2l1.4,0.2l0.2-2l0.5,0.1l-0.2,2l1.9,0.2l-0.1,0.6l-4.4-0.5l0.3-2.8l0.5,0.1L322.1,380.2z"/>
	<path fill="#333333" d="M326.3,376.8l-4.4,0l0-0.6l4.4,0L326.3,376.8z"/>
	<path fill="#333333" d="M325.5,371.6c0.3,0.2,0.6,0.6,0.6,1.1c0.1,0.4,0,0.9-0.3,1.2c-0.4,0.5-1,0.7-1.7,0.8
		c-0.7,0.1-1.3,0.1-1.9-0.3c-0.4-0.3-0.6-0.7-0.6-1.1c-0.1-0.5,0.1-0.9,0.3-1.2c0.2-0.3,0.5-0.5,0.9-0.6l0.1,0.6
		c-0.2,0-0.4,0.2-0.6,0.3c-0.2,0.2-0.3,0.5-0.2,0.8c0,0.3,0.2,0.6,0.4,0.8c0.4,0.3,1,0.2,1.5,0.2c0.5-0.1,1-0.2,1.4-0.6
		c0.2-0.2,0.3-0.5,0.2-0.8c0-0.3-0.2-0.6-0.4-0.8c-0.2-0.1-0.4-0.2-0.7-0.2l-0.1-0.6C324.8,371.3,325.2,371.4,325.5,371.6z"/>
	<path fill="#333333" d="M324.7,367l-0.9,0.6l0.6,1.8l1.1,0l0.2,0.5l-4.7-0.2l-0.2-0.6l3.8-2.8L324.7,367z M321.4,369.4l2.4,0.1
		l-0.5-1.5L321.4,369.4z"/>
	<path fill="#333333" d="M319.9,365.8l3.5-1.6l0.2,0.5l-3.5,1.6l0.6,1.2l-0.5,0.2l-1.3-2.9l0.5-0.2L319.9,365.8z"/>
	<path fill="#333333" d="M320.4,359.8c0.4,0.1,0.8,0.4,1.1,0.7c0.2,0.4,0.4,0.8,0.3,1.2c-0.1,0.7-0.6,1.1-1.2,1.5
		c-0.6,0.4-1.2,0.7-1.8,0.5c-0.4-0.1-0.8-0.4-1.1-0.7c-0.2-0.4-0.4-0.8-0.3-1.2c0.1-0.7,0.6-1.1,1.2-1.5
		C319.1,359.9,319.7,359.6,320.4,359.8z M317.9,361.9c-0.1,0.3,0,0.6,0.2,0.9c0.2,0.2,0.4,0.4,0.7,0.5c0.5,0.1,1-0.2,1.4-0.5
		c0.4-0.3,0.9-0.6,1-1.1c0.1-0.3,0-0.6-0.2-0.8c-0.2-0.2-0.4-0.4-0.7-0.5c-0.5-0.1-1,0.2-1.4,0.5C318.5,361,318,361.4,317.9,361.9z"
		/>
</g>
<path fill="#333333" d="M313.5,365.4c2.2,3.2,3.5,7.1,3.5,11.3c0,10.9-8.9,19.8-19.8,19.8c-10.9,0-19.8-8.9-19.8-19.8
	c0-10.9,8.9-19.8,19.8-19.8c3.1,0,5.9,0.7,8.5,2c0.5-0.8,1-1.6,1.5-2.5c-3-1.5-6.4-2.4-10-2.4c-12.5,0-22.7,10.2-22.7,22.7
	c0,12.5,10.2,22.7,22.7,22.7c12.5,0,22.7-10.2,22.7-22.7c0-5.2-1.8-10-4.8-13.9C314.6,363.7,314.1,364.6,313.5,365.4z"/>
<path fill="#333333" d="M282.6,356.8l-0.7-1.4l1.5-7.4l-4.2,2.3l-0.7-1.3l5.9-3.2l0.7,1.4l-1.5,7.4l4.3-2.3l0.7,1.3L282.6,356.8z"/>
<path fill="#333333" d="M289.5,353.3l-1.7-8.6l6.1-1.2l0.3,1.4l-4.6,0.9l0.4,2l4-0.8l0.3,1.4l-4,0.8l0.5,2.4l4.6-0.9l0.3,1.4
	L289.5,353.3z"/>
<path fill="#333333" d="M303.9,352.8l-1.6-0.2l-1.1-6.2l-2.6,5.8l-1.6-0.2l-0.7-8.7l1.5,0l0.5,6.2l2.5-5.7l1.3,0.2l1,6.1l2-5.9
	l1.4,0.4L303.9,352.8z"/>
<path fill="#333333" d="M310.8,355.2c-0.9,0.3-1.9,0.2-2.7-0.2c-0.8-0.4-1.5-1.1-1.8-2c-0.4-1.3,0-2.4,0.6-3.7
	c0.6-1.3,1.3-2.3,2.6-2.7c0.9-0.3,1.9-0.2,2.7,0.2c0.8,0.4,1.5,1.1,1.8,2c0.4,1.3,0,2.4-0.6,3.7
	C312.7,353.8,312.1,354.8,310.8,355.2z M312.5,349.2c-0.1-0.5-0.5-0.9-1-1.1c-0.5-0.2-1-0.3-1.5-0.1c-0.8,0.3-1.3,1.3-1.7,2
	c-0.4,0.7-0.8,1.7-0.6,2.5c0.1,0.5,0.5,0.9,1,1.1c0.5,0.2,1,0.3,1.5,0.1c0.8-0.3,1.3-1.2,1.7-2C312.3,351.1,312.8,350.1,312.5,349.2
	z"/>
</svg>
