_______________________________________________________________
_______________________________________________________________
Live installation
_______________________________________________________________
- In template.php sbvmainurl() richtig einstellen!
- img_live nach img kopieren
(update db with new domain names!)
_______________________________________________________________
_______________________________________________________________


_______________________________________________________________
_______________________________________________________________
Test-Installation:
_______________________________________________________________
- In template.php sbvmainurl() richtig einstellen!
- img_test nach img kopieren...
(update db with new domain names!)
_______________________________________________________________
_______________________________________________________________

monkee.ch hats verbrochen ;-)