<?xml version="1.0" encoding="utf-8"?>
<!-- Generator: Adobe Illustrator 17.1.0, SVG Export Plug-In . SVG Version: 6.00 Build 0)  -->
<!DOCTYPE svg [
	<!ENTITY ns_flows "http://ns.adobe.com/Flows/1.0/">
	<!ENTITY ns_extend "http://ns.adobe.com/Extensibility/1.0/">
	<!ENTITY ns_ai "http://ns.adobe.com/AdobeIllustrator/10.0/">
	<!ENTITY ns_graphs "http://ns.adobe.com/Graphs/1.0/">
]>
<svg version="1.2" baseProfile="tiny" id="Capa_1" xmlns:x="&ns_extend;" xmlns:i="&ns_ai;" xmlns:graph="&ns_graphs;"
	 xmlns="http://www.w3.org/2000/svg" xmlns:xlink="http://www.w3.org/1999/xlink" xmlns:a="http://ns.adobe.com/AdobeSVGViewerExtensions/3.0/"
	 x="0px" y="0px" width="512px" height="512px" viewBox="0 0 512 512" xml:space="preserve">
<g>
	<g>
		<path fill="#0C24AC" d="M259,225.3c-2.2,0-4.2,0.1-6.2,0.4c-1.7-2.1-4.4-4-7.9-5.1c-5.4-1.8-18-5.2-18-1.1
			c3.3,2.3,6.1,9.9,9.3,13.3c-5.1,4.1-9.1,9.7-12.2,16.3c0,0-4.4,1.5-5.6,2.6c-1.2,1.2-1.1,12.9,0,14c1.1,1.1,6.4,2.3,6.4,2.3
			c2.6,5.8,6.5,10.5,11.5,14c-0.3,4-0.6,10.7,0.2,11.5c1.1,1.1,11.5,1.3,12.8,0c0.5-0.5,2.5-2.8,4.6-5.2c1.6,0.2,3.3,0.3,5,0.3
			c1.3,0,2.6-0.1,3.9-0.2c1.9,2.2,3.5,4.7,4,5.2c1.3,1.3,11.6,1.1,12.8,0c0.7-0.7,0.5-7,0.3-11.1c8.8-5.7,14.5-15,14.5-25.5
			C294.4,239.5,278.5,225.3,259,225.3z M277.3,278.4l-2.3,1.5l0.2,2.8c0.2,3,0.2,5.2,0.2,6.7c-0.6,0-1.4,0-2.3,0c0,0,0,0,0,0
			c-1.5,0-2.6,0-3.3-0.1c0,0-0.1-0.1-0.1-0.1c-0.8-1.1-1.9-2.6-3.1-4l-1.6-1.9l-2.5,0.3c-1.1,0.1-2.3,0.2-3.4,0.2
			c-1.6,0-3.1-0.1-4.5-0.3l-2.5-0.3l-1.6,1.9c-1.5,1.7-2.9,3.3-3.7,4.3c-0.6,0.1-1.8,0.2-3.5,0.2c-0.9,0-1.6,0-2.3-0.1
			c0-1.4,0-3.7,0.3-7.2l0.2-2.7l-2.2-1.6c-4.3-3-7.6-7.1-9.9-12l-1-2.2l-2.3-0.5c-1.1-0.3-2.4-0.6-3.3-0.9c-0.2-2.1-0.2-5.6,0-7.6
			c0.8-0.3,1.9-0.8,3-1.1l2-0.6l0.9-1.9c2.9-6.3,6.6-11.2,10.9-14.6l4.1-3.3l-3.7-3.8c-1.1-1.1-2.3-3.2-3.5-5.3
			c-0.2-0.3-0.4-0.7-0.6-1c2.6,0.5,5.4,1.3,7.8,2.1c2.4,0.8,4.5,2.1,5.6,3.5l1.7,2.2l2.7-0.4c1.8-0.3,3.6-0.4,5.5-0.4
			c16.9,0,30.6,12,30.6,26.8C289.6,265.4,285.1,273.3,277.3,278.4z"/>
		<path fill="#0C24AC" d="M270,236.7c-5.7-1.7-11.9,0.8-12.4,2.3c-0.4,1.5,5.9-0.5,11.6,1.2c5.7,1.7,11.1,8.8,11.6,7.3
			C281.3,246,275.7,238.4,270,236.7z"/>
		<path fill="#0C24AC" d="M241.5,243.2c-1.7,0-3,1.4-3,3s1.3,3,3,3s3-1.3,3-3S243.2,243.2,241.5,243.2z"/>
	</g>
</g>
</svg>
